{
  "project_info": {
    "project_number": "1091673624989",
    "firebase_url": "https://easycsp-b4e4a.firebaseio.com",
    "project_id": "easycsp-b4e4a",
    "storage_bucket": "easycsp-b4e4a.appspot.com"
  },
  "client": [
    {
      "client_info": {
        "mobilesdk_app_id": "1:1091673624989:android:663c224603c9709ba71f74",
        "android_client_info": {
          "package_name": "com.easycsp.csp"
        }
      },
      "oauth_client": [
        {
          "client_id": "1091673624989-trb3gjk8qm77tpecpiv3sufienm5sgl2.apps.googleusercontent.com",
          "client_type": 3
        }
      ],
      "api_key": [
        {
          "current_key": "AIzaSyBc4Wzej_VdaSg3TRnEv-9Eb1LccO08gos"
        }
      ],
      "services": {
        "appinvite_service": {
          "other_platform_oauth_client": [
            {
              "client_id": "1091673624989-trb3gjk8qm77tpecpiv3sufienm5sgl2.apps.googleusercontent.com",
              "client_type": 3
            }
          ]
        }
      }
    }
  ],
  "configuration_version": "1"
}